<svg id="svgWrapper" xmlns="http://www.w3.org/2000/svg" viewBox="0 0 511.89 511.89">
    <defs>
        <style>
            .cls-1 {
                fill: #465059;
            }

            .cls-2 {
                fill: #fefefe;
            }

            .cls-3 {
                fill: #7fe874;
            }

            .cls-4 {
                fill: #3ac7b4;
            }

            .cls-5 {
                fill: #da5b65;
            }

            .cls-6 {
                fill: #ff8c57;
            }

            .cls-7 {
                fill: #e7b835;
            }

            .cls-8 {
                fill: #ffcd38;
            }

            .cls-9 {
                fill: #be344a;
            }

            .cls-10 {
                fill: #d85b65;
            }

            #aiguille {
                transform-box: fill-box;
                transform-origin: left bottom;
                transform: rotate(0);
                animation: rotation 2s ease-in-out infinite alternate;
            }

            @keyframes rotation {
                from {
                    transform: rotate(-175deg)
                }

                to {
                    transform: rotate(85deg)
                }
            }

            #visage {
                animation: flotaison 1s ease-in-out infinite alternate;
            }

            @keyframes flotaison {
                from {
                    transform: translateY(0)
                }

                to {
                    transform: translateY(5%)
                }
            }

            .eyeWrapper,
            #mouthWrapper {
                transform-box: fill-box;
                transform-origin: center;
            }

            .eyeWrapper {
                animation: blink 2.5s ease-out infinite alternate 1s;
            }

            @keyframes blink {

                from,
                95% {
                    transform: scale(1)
                }

                to {
                    transform: scale(.2)
                }
            }
            #mouthWrapper.happy {transform: rotateX(0)}

            #mouthWrapper.sad {
                transform: rotateX(180deg)
            }
        </style>
    </defs>
    <title>speedometer</title>
    <circle id="back_jauge" class="cls-1" cx="255.95" cy="255.95" r="255.95" />
    <g id="visage">
        <g id="mouthWrapper">
            <path id="bouche" class="cls-2"
                d="M301.21,605.62c-10.06-.28-18.85-3.64-25.92-10.94-3.13-3.24-4.16-7-1-10.69s7.09-3.68,11-.68c12.61,9.57,18.68,9.54,31.41-.08,4-3,7.83-2.93,11,.86s2,7.47-1.13,10.69C319.71,601.9,311.1,605.27,301.21,605.62Z"
                transform="translate(-45.74 -165.44)" />
        </g>
        <g class="eyeWrapper">
            <path id="oeil_gauche" class="cls-2"
                d="M208.06,581.25a81.8,81.8,0,0,1,.86-8.72c.73-3.75,3.43-5.55,7.17-5.58,3.58,0,6.22,1.84,6.95,5.23a49.92,49.92,0,0,1,.06,19.71c-.72,3.77-3.7,5.39-7.39,5.28s-6.34-2.19-7-5.87C208.16,588.23,208.28,585,208.06,581.25Z"
                transform="translate(-45.74 -165.44)" />
        </g>
        <g class="eyeWrapper">
            <path id="oeil_droit" class="cls-2"
                d="M393.62,582.56a56.65,56.65,0,0,1-.07,7.93c-.57,4.1-3.09,6.61-7.36,6.67s-7.1-2.15-7.48-6.37a116,116,0,0,1-.34-15.37c.21-4.75,2.31-8.52,7.77-8.44s7.31,3.82,7.63,8.61c.15,2.31,0,4.64,0,7Z"
                transform="translate(-45.74 -165.44)" />
        </g>
    </g>
    <g id="couleurs_jauge">
        <path id="_6" data-name="6" class="cls-3"
            d="M521.65,421H449.31v0c0,.16,0,.31,0,.46a147,147,0,0,1-36.53,97.2,8.51,8.51,0,0,0,.45,11.7L430.36,547l22.51,22a8.52,8.52,0,0,0,12.26-.38A219.18,219.18,0,0,0,521.65,421Z"
            transform="translate(-45.74 -165.44)" />
        <path id="_5" data-name="5" class="cls-4"
            d="M521.65,421a219.26,219.26,0,0,0-65.42-156.07l-50.9,51.39h0a147.12,147.12,0,0,1,44,104.65v0Z"
            transform="translate(-45.74 -165.44)" />
        <path id="_4" data-name="4" class="cls-5"
            d="M81.72,421h0a219.18,219.18,0,0,0,56.52,147.64,8.52,8.52,0,0,0,12.26.38L173,547l17.14-16.71a8.51,8.51,0,0,0,.44-11.7,147,147,0,0,1-36.53-97.2c0-.15,0-.3,0-.46v0Z"
            transform="translate(-45.74 -165.44)" />
        <path id="_3" data-name="3" class="cls-6"
            d="M147.14,264.88A219.26,219.26,0,0,0,81.72,421h72.34v0a147.12,147.12,0,0,1,44-104.65h0Z"
            transform="translate(-45.74 -165.44)" />
        <path id="_2" data-name="2" class="cls-7"
            d="M301.69,201.42a222,222,0,0,0-154.55,63.46L198,316.27h0a147.16,147.16,0,0,1,103-42.5h.69Z"
            transform="translate(-45.74 -165.44)" />
        <path id="_1" data-name="1" class="cls-8"
            d="M456.23,264.88a219.23,219.23,0,0,0-154.54-63.46v72.35a147.13,147.13,0,0,1,103.63,42.5h0Z"
            transform="translate(-45.74 -165.44)" />
    </g>
    <g id="aiguilleWrapper">
        <g id="aiguille">
            <path id="pointe_aiguille" class="cls-9"
                d="M385.88,313.49c8.78-7.61,17.62-15.14,26.32-22.83,6.15-5.44,12.38-6.07,19-1,5.43,7.1,4,13.53-1.6,19.85-7.52,8.42-14.8,17.06-22.18,25.6l-55.52,62.49c-1.42,1.58-2.94,3.08-4.41,4.61-2.21,0-2.9-1.79-3.85-3.3-5.36-8.56-11.77-16.05-20.84-21-1.75-1-4-1.82-4.05-4.48q31.29-27.75,62.57-55.52C382.91,316.51,384.37,315,385.88,313.49Z"
                transform="translate(-45.74 -165.44)" />
            <path id="racine_aiguille" class="cls-10"
                d="M332.24,419.9c-.29-10.3-20.71-30.85-31.26-31.15L328.25,365a51.16,51.16,0,0,1,27.89,27.78Q344.2,406.32,332.24,419.9Z"
                transform="translate(-45.74 -165.44)" />
        </g>
        <circle id="joint_jauge" class="cls-2" cx="255.29" cy="254.45" r="31.09" />
    </g>
</svg>
